(module Display-Clock-small (layer F.Cu) (tedit 57C0205A)
  (descr "4x7-segments, 14 mm, Kingbright CA56-12 and CC56-12 displays")
  (tags "7-segments display")
  (fp_text reference REF** (at 5.08 -15.24) (layer F.SilkS)
    (effects (font (size 1 1) (thickness 0.15)))
  )
  (fp_text value Cx56-12 (at 6.35 3.38) (layer F.Fab)
    (effects (font (size 1 1) (thickness 0.15)))
  )
  (fp_line (start 31.75 2.15) (end -19.05 2.15) (layer F.CrtYd) (width 0.05))
  (fp_line (start 31.75 -17.35) (end 31.75 2.15) (layer F.CrtYd) (width 0.05))
  (fp_line (start -19.05 -17.35) (end 31.75 -17.35) (layer F.CrtYd) (width 0.05))
  (fp_line (start -19.05 2.15) (end -19.05 -17.35) (layer F.CrtYd) (width 0.05))
  (fp_line (start 31.5 1.88) (end -18.8 1.88) (layer F.SilkS) (width 0.15))
  (fp_line (start -18.8 1.88) (end -18.8 -17.12) (layer F.SilkS) (width 0.15))
  (fp_line (start -18.8 -14.58) (end 31.5 -14.58) (layer F.SilkS) (width 0.15))
  (fp_line (start 31.5 -17.12) (end 31.5 1.88) (layer F.SilkS) (width 0.15))
  (fp_line (start 21.98 -7.62) (end 26.98 -7.62) (layer F.SilkS) (width 0.15))
  (fp_line (start 20.23 -1.62) (end 25.48 -1.62) (layer F.SilkS) (width 0.15))
  (fp_line (start 27.73 -8.12) (end 29.23 -13.62) (layer F.SilkS) (width 0.15))
  (fp_line (start 25.98 -1.62) (end 27.48 -7.12) (layer F.SilkS) (width 0.15))
  (fp_line (start 21.48 -8.12) (end 22.98 -13.62) (layer F.SilkS) (width 0.15))
  (fp_line (start 19.73 -1.62) (end 21.23 -7.12) (layer F.SilkS) (width 0.15))
  (fp_line (start 23.48 -13.62) (end 28.73 -13.62) (layer F.SilkS) (width 0.15))
  (fp_line (start -14.85 -7.62) (end -9.85 -7.62) (layer F.SilkS) (width 0.15))
  (fp_line (start -16.6 -1.62) (end -11.35 -1.62) (layer F.SilkS) (width 0.15))
  (fp_line (start -9.1 -8.12) (end -7.6 -13.62) (layer F.SilkS) (width 0.15))
  (fp_line (start -10.85 -1.62) (end -9.35 -7.12) (layer F.SilkS) (width 0.15))
  (fp_line (start -15.35 -8.12) (end -13.85 -13.62) (layer F.SilkS) (width 0.15))
  (fp_line (start -17.1 -1.62) (end -15.6 -7.12) (layer F.SilkS) (width 0.15))
  (fp_line (start -13.35 -13.62) (end -8.1 -13.62) (layer F.SilkS) (width 0.15))
  (fp_line (start -0.65 -13.62) (end 4.6 -13.62) (layer Cmts.User) (width 0.15))
  (fp_line (start -4.4 -1.62) (end -2.9 -7.12) (layer F.SilkS) (width 0.15))
  (fp_line (start -2.65 -8.12) (end -1.15 -13.62) (layer Cmts.User) (width 0.15))
  (fp_line (start 1.85 -1.62) (end 3.35 -7.12) (layer F.SilkS) (width 0.15))
  (fp_line (start 3.6 -8.12) (end 5.1 -13.62) (layer Cmts.User) (width 0.15))
  (fp_line (start -3.9 -1.62) (end 1.35 -1.62) (layer F.SilkS) (width 0.15))
  (fp_line (start -2.15 -7.62) (end 2.85 -7.62) (layer F.SilkS) (width 0.15))
  (fp_line (start 16.235 -8.12) (end 17.735 -13.62) (layer Cmts.User) (width 0.15))
  (fp_line (start 11.985 -13.62) (end 17.235 -13.62) (layer Cmts.User) (width 0.15))
  (fp_line (start 9.985 -8.12) (end 11.485 -13.62) (layer Cmts.User) (width 0.15))
  (fp_line (start 10.485 -7.62) (end 15.485 -7.62) (layer F.SilkS) (width 0.15))
  (fp_line (start 8.735 -1.62) (end 13.985 -1.62) (layer F.SilkS) (width 0.15))
  (fp_line (start 8.235 -1.62) (end 9.735 -7.12) (layer F.SilkS) (width 0.15))
  (fp_line (start 14.485 -1.62) (end 15.985 -7.12) (layer F.SilkS) (width 0.15))
  (fp_circle (center 28.23 -2.12) (end 28.23 -1.62) (layer F.SilkS) (width 0.15))
  (fp_circle (center 6.64 -9.74) (end 6.64 -9.24) (layer F.SilkS) (width 0.15))
  (fp_circle (center 16.735 -2.12) (end 16.735 -1.62) (layer F.SilkS) (width 0.15))
  (fp_circle (center 6.64 -4.66) (end 6.64 -4.16) (layer F.SilkS) (width 0.15))
  (pad 1 thru_hole rect (at 0 -12.7) (size 2.032 2.032) (drill 0.9144) (layers *.Cu *.Mask F.SilkS))
  (pad 2 thru_hole circle (at 2.54 -12.7) (size 2 2) (drill 1) (layers *.Cu *.Mask F.SilkS))
  (pad 3 thru_hole circle (at 5.08 -12.7) (size 2 2) (drill 1) (layers *.Cu *.Mask F.SilkS))
  (pad 4 thru_hole circle (at 7.62 -12.7) (size 2 2) (drill 1) (layers *.Cu *.Mask F.SilkS))
  (pad 5 thru_hole circle (at 10.16 -12.7) (size 2 2) (drill 1) (layers *.Cu *.Mask F.SilkS))
  (pad 6 thru_hole circle (at 12.7 -12.7) (size 2 2) (drill 1) (layers *.Cu *.Mask F.SilkS))
  (pad 9 thru_hole circle (at 7.62 0) (size 2 2) (drill 1) (layers *.Cu *.Mask F.SilkS))
  (pad 8 thru_hole circle (at 10.16 0) (size 2 2) (drill 1) (layers *.Cu *.Mask F.SilkS))
  (pad 12 thru_hole circle (at 0 0) (size 2 2) (drill 1) (layers *.Cu *.Mask F.SilkS))
  (pad 11 thru_hole circle (at 2.54 0) (size 2 2) (drill 1) (layers *.Cu *.Mask F.SilkS))
  (pad 7 thru_hole circle (at 12.7 0) (size 2 2) (drill 1) (layers *.Cu *.Mask F.SilkS))
  (pad 10 thru_hole circle (at 5.08 0) (size 2 2) (drill 1) (layers *.Cu *.Mask F.SilkS))
  (model Displays_7-Segment.3dshapes/Cx56-12.wrl
    (at (xyz 0.254 0.3 0.03937))
    (scale (xyz 0.393701 0.393701 0.393701))
    (rotate (xyz 0 0 0))
  )
)
