(module LED-RGB-5MM_Common_Cathode_10mil_space (layer F.Cu) (tedit 57BC4B80)
  (descr "5mm common cathode RGB LED")
  (tags "RGB LED 5mm Common Cathode")
  (fp_text reference D3 (at 0 -2.25) (layer F.SilkS)
    (effects (font (size 1 1) (thickness 0.15)))
  )
  (fp_text value LED_RCBG (at 0 6.25) (layer F.Fab)
    (effects (font (size 1 1) (thickness 0.15)))
  )
  (fp_circle (center 0 1.905) (end 3.2 1.905) (layer F.CrtYd) (width 0.05))
  (fp_line (start -1.1 -0.595) (end -1.55 -0.595) (layer F.SilkS) (width 0.15))
  (fp_circle (center 0 1.905) (end 2.95 1.905) (layer F.SilkS) (width 0.15))
  (fp_line (start 1.1 -0.595) (end 1.55 -0.595) (layer F.SilkS) (width 0.15))
  (pad 1 thru_hole oval (at 0 -0.2032) (size 1.905 1.1176) (drill 0.762) (layers *.Cu *.Mask F.SilkS))
  (pad 2 thru_hole rect (at 0 1.1684) (size 1.905 1.1176) (drill 0.762) (layers *.Cu *.Mask F.SilkS))
  (pad 3 thru_hole oval (at -0.0254 2.54) (size 1.905 1.1176) (drill 0.762) (layers *.Cu *.Mask F.SilkS))
  (pad 4 thru_hole oval (at 0 3.9116) (size 1.905 1.1176) (drill 0.762) (layers *.Cu *.Mask F.SilkS))
)
