EESchema Schematic File Version 2
LIBS:power
LIBS:device
LIBS:transistors
LIBS:conn
LIBS:linear
LIBS:regul
LIBS:74xx
LIBS:cmos4000
LIBS:adc-dac
LIBS:memory
LIBS:xilinx
LIBS:microcontrollers
LIBS:dsp
LIBS:microchip
LIBS:analog_switches
LIBS:motorola
LIBS:texas
LIBS:intel
LIBS:audio
LIBS:interface
LIBS:digital-audio
LIBS:philips
LIBS:display
LIBS:cypress
LIBS:siliconi
LIBS:opto
LIBS:atmel
LIBS:contrib
LIBS:valves
LIBS:buck_1a
LIBS:hotplate-cache
EELAYER 25 0
EELAYER END
$Descr A4 11693 8268
encoding utf-8
Sheet 1 1
Title ""
Date ""
Rev ""
Comp ""
Comment1 ""
Comment2 ""
Comment3 ""
Comment4 ""
$EndDescr
$Comp
L ATMEGA8A-P IC1
U 1 1 57A573A2
P 3800 3750
F 0 "IC1" H 3050 5050 50  0000 L BNN
F 1 "ATMEGA8A-P" H 4300 2300 50  0000 L BNN
F 2 "Housings_DIP:DIP-28_W7.62mm" H 3800 3750 50  0000 C CIN
F 3 "" H 3800 3750 50  0000 C CNN
	1    3800 3750
	1    0    0    -1  
$EndComp
$Comp
L +12V #PWR01
U 1 1 57A57923
P 7550 2000
F 0 "#PWR01" H 7550 1850 50  0001 C CNN
F 1 "+12V" H 7550 2140 50  0000 C CNN
F 2 "Pin_Headers:Pin_Header_Straight_1x01" H 7550 2000 50  0000 C CNN
F 3 "" H 7550 2000 50  0000 C CNN
	1    7550 2000
	1    0    0    -1  
$EndComp
$Comp
L +5V #PWR02
U 1 1 57A5793B
P 6650 2000
F 0 "#PWR02" H 6650 1850 50  0001 C CNN
F 1 "+5V" H 6650 2140 50  0000 C CNN
F 2 "Pin_Headers:Pin_Header_Straight_1x01" H 6650 2000 50  0000 C CNN
F 3 "" H 6650 2000 50  0000 C CNN
	1    6650 2000
	1    0    0    -1  
$EndComp
$Comp
L GND #PWR03
U 1 1 57A57A08
P 2350 3050
F 0 "#PWR03" H 2350 2800 50  0001 C CNN
F 1 "GND" H 2350 2900 50  0000 C CNN
F 2 "" H 2350 3050 50  0000 C CNN
F 3 "" H 2350 3050 50  0000 C CNN
	1    2350 3050
	1    0    0    -1  
$EndComp
$Comp
L R 10k_1
U 1 1 57A57AD5
P 2600 2650
F 0 "10k_1" V 2680 2650 50  0000 C CNN
F 1 "R" V 2600 2650 50  0000 C CNN
F 2 "Resistors_ThroughHole:Resistor_Horizontal_RM10mm" V 2530 2650 50  0000 C CNN
F 3 "" H 2600 2650 50  0000 C CNN
	1    2600 2650
	0    1    1    0   
$EndComp
$Comp
L C 100nF2
U 1 1 57A57FD7
P 2150 2900
F 0 "100nF2" H 2175 3000 50  0000 L CNN
F 1 "C" H 2175 2800 50  0000 L CNN
F 2 "Capacitors_ThroughHole:C_Disc_D3_P2.5" H 2188 2750 50  0000 C CNN
F 3 "" H 2150 2900 50  0000 C CNN
	1    2150 2900
	1    0    0    -1  
$EndComp
$Comp
L C 100nF1
U 1 1 57A5803A
P 1850 2900
F 0 "100nF1" H 1875 3000 50  0000 L CNN
F 1 "C" H 1875 2800 50  0000 L CNN
F 2 "Capacitors_ThroughHole:C_Disc_D3_P2.5" H 1888 2750 50  0000 C CNN
F 3 "" H 1850 2900 50  0000 C CNN
	1    1850 2900
	1    0    0    -1  
$EndComp
$Comp
L TEST_1P 12V+1
U 1 1 57A58474
P 9150 800
F 0 "12V+1" H 9150 1070 50  0000 C CNN
F 1 "TEST_1P" H 9150 1000 50  0000 C CNN
F 2 "Pin_Headers:Pin_Header_Straight_1x01" H 9350 800 50  0001 C CNN
F 3 "" H 9350 800 50  0000 C CNN
	1    9150 800 
	1    0    0    -1  
$EndComp
$Comp
L IRF540N Q3
U 1 1 57A585B1
P 7600 2850
F 0 "Q3" H 7850 2925 50  0000 L CNN
F 1 "IRF540N" H 7850 2850 50  0000 L CNN
F 2 "Power_Integrations:TO-220" H 7850 2775 50  0000 L CIN
F 3 "" H 7600 2850 50  0000 L CNN
	1    7600 2850
	1    0    0    -1  
$EndComp
$Comp
L D_Schottky_Small Schottky1
U 1 1 57B9560B
P 5650 2000
F 0 "Schottky1" H 5600 2080 50  0000 L CNN
F 1 "D_Schottky_Small" H 5370 1920 50  0000 L CNN
F 2 "Diodes_ThroughHole:Diode_DO-41_SOD81_Horizontal_RM10" V 5650 2000 50  0000 C CNN
F 3 "" V 5650 2000 50  0000 C CNN
	1    5650 2000
	1    0    0    -1  
$EndComp
$Comp
L ZENER 5.1Vzener_1
U 1 1 57B973B4
P 1500 2450
F 0 "5.1Vzener_1" H 1500 2550 50  0000 C CNN
F 1 "ZENER" H 1500 2350 50  0000 C CNN
F 2 "Diodes_ThroughHole:Diode_DO-41_SOD81_Horizontal_RM10" H 1500 2450 50  0000 C CNN
F 3 "" H 1500 2450 50  0000 C CNN
	1    1500 2450
	0    1    1    0   
$EndComp
$Comp
L CONN_02X05 P1
U 1 1 57B99626
P 5850 2900
F 0 "P1" H 5850 3200 100 0000 C CNN
F 1 "CONN_02X05" H 5850 2600 50  0000 C CNN
F 2 "Pin_Headers:Pin_Header_Straight_2x05" H 5900 2500 50  0000 C CNN
F 3 "" H 5850 1700 50  0000 C CNN
	1    5850 2900
	1    0    0    -1  
$EndComp
$Comp
L D_Schottky_Small Schottky2
U 1 1 57B9981F
P 6100 2350
F 0 "Schottky2" H 6050 2430 50  0000 L CNN
F 1 "D_Schottky_Small" H 5820 2270 50  0000 L CNN
F 2 "Diodes_ThroughHole:Diode_DO-41_SOD81_Horizontal_RM10" V 6100 2350 50  0000 C CNN
F 3 "" V 6100 2350 50  0000 C CNN
	1    6100 2350
	0    1    1    0   
$EndComp
$Comp
L Q_PNP_CBE Q2
U 1 1 57B9B0B1
P 7150 2700
F 0 "Q2" H 7450 2750 50  0000 R CNN
F 1 "Q_PNP_CBE" H 7750 2650 50  0000 R CNN
F 2 "TO_SOT_Packages_THT:TO-92_Inline_Narrow_Oval" H 7350 2800 50  0000 C CNN
F 3 "" H 7150 2700 50  0000 C CNN
	1    7150 2700
	1    0    0    1   
$EndComp
$Comp
L Q_NPN_CBE Q1
U 1 1 57B9B1D8
P 6550 2700
F 0 "Q1" H 6850 2750 50  0000 R CNN
F 1 "Q_NPN_CBE" H 7150 2650 50  0000 R CNN
F 2 "TO_SOT_Packages_THT:TO-92_Inline_Narrow_Oval" H 6750 2800 50  0000 C CNN
F 3 "" H 6550 2700 50  0000 C CNN
	1    6550 2700
	1    0    0    -1  
$EndComp
$Comp
L R 5K1_4
U 1 1 57B9B345
P 7350 3500
F 0 "5K1_4" V 7430 3500 50  0000 C CNN
F 1 "R" V 7350 3500 50  0000 C CNN
F 2 "smiley-library:Resistor_Vertical_2.4" V 7280 3500 50  0001 C CNN
F 3 "" H 7350 3500 50  0000 C CNN
	1    7350 3500
	1    0    0    -1  
$EndComp
$Comp
L R 5K1_1
U 1 1 57B9CDCB
P 6350 2550
F 0 "5K1_1" V 6430 2550 50  0000 C CNN
F 1 "R" V 6350 2550 50  0000 C CNN
F 2 "smiley-library:Resistor_Vertical_2.4" V 6280 2550 50  0001 C CNN
F 3 "" H 6350 2550 50  0000 C CNN
	1    6350 2550
	1    0    0    -1  
$EndComp
$Comp
L R 5K1_2
U 1 1 57B9CF65
P 6800 2300
F 0 "5K1_2" V 6880 2300 50  0000 C CNN
F 1 "R" V 6800 2300 50  0000 C CNN
F 2 "smiley-library:Resistor_Vertical_2.4" V 6730 2300 50  0000 C CNN
F 3 "" H 6800 2300 50  0000 C CNN
	1    6800 2300
	0    1    1    0   
$EndComp
$Comp
L R 5K1_3
U 1 1 57B9D0BA
P 7150 2300
F 0 "5K1_3" V 7230 2300 50  0000 C CNN
F 1 "R" V 7150 2300 50  0000 C CNN
F 2 "smiley-library:Resistor_Vertical_2.4" V 7080 2300 50  0000 C CNN
F 3 "" H 7150 2300 50  0000 C CNN
	1    7150 2300
	0    1    1    0   
$EndComp
$Comp
L LED_RCBG D4
U 1 1 57B9E47E
P 8900 4300
F 0 "D4" H 8900 4650 50  0000 C CNN
F 1 "LED_RCBG" H 8900 3950 50  0000 C CNN
F 2 "smiley-library:LED-RGB-5MM_Common_Cathode_10mil_space" H 8900 4250 50  0000 C CNN
F 3 "" H 8900 4250 50  0000 C CNN
	1    8900 4300
	-1   0    0    1   
$EndComp
$Comp
L LED_RCBG D3
U 1 1 57B9E9B5
P 8900 3300
F 0 "D3" H 8900 3650 50  0000 C CNN
F 1 "LED_RCBG" H 8900 2950 50  0000 C CNN
F 2 "smiley-library:LED-RGB-5MM_Common_Cathode_10mil_space" H 8900 3250 50  0000 C CNN
F 3 "" H 8900 3250 50  0000 C CNN
	1    8900 3300
	-1   0    0    1   
$EndComp
$Comp
L R 5K1_11
U 1 1 57B9EA4D
P 9450 4300
F 0 "5K1_11" V 9530 4300 50  0000 C CNN
F 1 "R" V 9450 4300 50  0000 C CNN
F 2 "smiley-library:Resistor_Vertical_2.4" V 9380 4300 50  0000 C CNN
F 3 "" H 9450 4300 50  0000 C CNN
	1    9450 4300
	0    -1   -1   0   
$EndComp
$Comp
L R 5K1_10
U 1 1 57B9EB10
P 9450 3300
F 0 "5K1_10" V 9530 3300 50  0000 C CNN
F 1 "R" V 9450 3300 50  0000 C CNN
F 2 "smiley-library:Resistor_Vertical_2.4" V 9380 3300 50  0000 C CNN
F 3 "" H 9450 3300 50  0000 C CNN
	1    9450 3300
	0    -1   -1   0   
$EndComp
$Comp
L R 5K1_9
U 1 1 57B9F171
P 8350 4500
F 0 "5K1_9" V 8430 4500 50  0000 C CNN
F 1 "R" V 8350 4500 50  0000 C CNN
F 2 "smiley-library:Resistor_Vertical_2.4" V 8280 4500 50  0000 C CNN
F 3 "" H 8350 4500 50  0000 C CNN
	1    8350 4500
	0    -1   -1   0   
$EndComp
$Comp
L R 5K1_12
U 1 1 57B9F203
P 8350 4300
F 0 "5K1_12" V 8430 4300 50  0000 C CNN
F 1 "R" V 8350 4300 50  0000 C CNN
F 2 "smiley-library:Resistor_Vertical_2.4" V 8280 4300 50  0000 C CNN
F 3 "" H 8350 4300 50  0000 C CNN
	1    8350 4300
	0    -1   -1   0   
$EndComp
$Comp
L R 5K1_8
U 1 1 57B9F2B4
P 8350 4100
F 0 "5K1_8" V 8430 4100 50  0000 C CNN
F 1 "R" V 8350 4100 50  0000 C CNN
F 2 "smiley-library:Resistor_Vertical_2.4" V 8280 4100 50  0000 C CNN
F 3 "" H 8350 4100 50  0000 C CNN
	1    8350 4100
	0    -1   -1   0   
$EndComp
$Comp
L R 5K1_7
U 1 1 57B9F33A
P 8350 3500
F 0 "5K1_7" V 8430 3500 50  0000 C CNN
F 1 "R" V 8350 3500 50  0000 C CNN
F 2 "smiley-library:Resistor_Vertical_2.4" V 8280 3500 50  0000 C CNN
F 3 "" H 8350 3500 50  0000 C CNN
	1    8350 3500
	0    -1   -1   0   
$EndComp
$Comp
L R 5K1_6
U 1 1 57B9F3BF
P 8350 3300
F 0 "5K1_6" V 8430 3300 50  0000 C CNN
F 1 "R" V 8350 3300 50  0000 C CNN
F 2 "smiley-library:Resistor_Vertical_2.4" V 8280 3300 50  0000 C CNN
F 3 "" H 8350 3300 50  0000 C CNN
	1    8350 3300
	0    -1   -1   0   
$EndComp
$Comp
L R 5K1_5
U 1 1 57B9F445
P 8350 3100
F 0 "5K1_5" V 8430 3100 50  0000 C CNN
F 1 "R" V 8350 3100 50  0000 C CNN
F 2 "smiley-library:Resistor_Vertical_2.4" V 8280 3100 50  0000 C CNN
F 3 "" H 8350 3100 50  0000 C CNN
	1    8350 3100
	0    -1   -1   0   
$EndComp
$Comp
L SW_PUSH SW4
U 1 1 57BA99AC
P 9500 5750
F 0 "SW4" H 9650 5860 50  0000 C CNN
F 1 "SW_PUSH" H 9500 5670 50  0000 C CNN
F 2 "IHE:SW_M6_PTH" H 9500 5750 50  0000 C CNN
F 3 "" H 9500 5750 50  0000 C CNN
	1    9500 5750
	0    1    1    0   
$EndComp
$Comp
L SW_PUSH SW3
U 1 1 57BAA043
P 9100 5750
F 0 "SW3" H 9250 5860 50  0000 C CNN
F 1 "SW_PUSH" H 9100 5670 50  0000 C CNN
F 2 "IHE:SW_M6_PTH" H 9100 5750 50  0000 C CNN
F 3 "" H 9100 5750 50  0000 C CNN
	1    9100 5750
	0    1    1    0   
$EndComp
$Comp
L SW_PUSH SW2
U 1 1 57BAA0CA
P 8700 5750
F 0 "SW2" H 8850 5860 50  0000 C CNN
F 1 "SW_PUSH" H 8700 5670 50  0000 C CNN
F 2 "IHE:SW_M6_PTH" H 8700 5750 50  0000 C CNN
F 3 "" H 8700 5750 50  0000 C CNN
	1    8700 5750
	0    1    1    0   
$EndComp
$Comp
L SW_PUSH SW1
U 1 1 57BAA14C
P 8300 5750
F 0 "SW1" H 8450 5860 50  0000 C CNN
F 1 "SW_PUSH" H 8300 5670 50  0000 C CNN
F 2 "IHE:SW_M6_PTH" H 8300 5750 50  0000 C CNN
F 3 "" H 8300 5750 50  0000 C CNN
	1    8300 5750
	0    1    1    0   
$EndComp
$Comp
L R 50R_1
U 1 1 57BAFC7D
P 4650 2000
F 0 "50R_1" V 4730 2000 50  0000 C CNN
F 1 "R" V 4650 2000 50  0000 C CNN
F 2 "Resistors_ThroughHole:Resistor_Horizontal_RM10mm" V 4580 2000 50  0000 C CNN
F 3 "" H 4650 2000 50  0000 C CNN
	1    4650 2000
	0    1    1    0   
$EndComp
NoConn ~ 5600 2800
NoConn ~ 6100 2800
NoConn ~ 6100 2900
NoConn ~ 6100 3000
NoConn ~ 4800 4050
NoConn ~ 4800 4150
NoConn ~ 4800 3450
NoConn ~ 4800 2850
NoConn ~ 4800 4650
NoConn ~ 2900 3350
NoConn ~ 2900 3550
NoConn ~ 2900 2950
$Comp
L TEST_1P THERMDIV1
U 1 1 57BACD62
P 10100 1400
F 0 "THERMDIV1" H 10100 1670 50  0000 C CNN
F 1 "TEST_1P" H 10100 1600 50  0000 C CNN
F 2 "Pin_Headers:Pin_Header_Straight_1x01" H 10300 1400 50  0001 C CNN
F 3 "" H 10300 1400 50  0000 C CNN
	1    10100 1400
	1    0    0    -1  
$EndComp
$Comp
L R R5K1_thermdiv1
U 1 1 57BAD637
P 10100 1800
F 0 "R5K1_thermdiv1" V 10180 1800 50  0000 C CNN
F 1 "R" V 10100 1800 50  0000 C CNN
F 2 "smiley-library:Resistor_Vertical_2.4" V 10030 1800 50  0001 C CNN
F 3 "" H 10100 1800 50  0000 C CNN
	1    10100 1800
	1    0    0    -1  
$EndComp
$Comp
L TEST_1P COIL1
U 1 1 57BB640E
P 8800 800
F 0 "COIL1" H 8800 1070 50  0000 C CNN
F 1 "TEST_1P" H 8800 1000 50  0000 C CNN
F 2 "Pin_Headers:Pin_Header_Straight_1x01" H 9000 800 50  0001 C CNN
F 3 "" H 9000 800 50  0000 C CNN
	1    8800 800 
	1    0    0    -1  
$EndComp
$Comp
L BUCK_1A U1
U 1 1 57B9D1B3
P 9250 900
F 0 "U1" H 9250 900 60  0000 C CNN
F 1 "BUCK_1A" H 9250 900 60  0000 C CNN
F 2 "smiley-library:BUCK_1A" H 9250 900 60  0001 C CNN
F 3 "" H 9250 900 60  0001 C CNN
	1    9250 900 
	1    0    0    1   
$EndComp
$Comp
L BARREL_JACK CON1
U 1 1 57BA9128
P 6850 800
F 0 "CON1" H 6850 1050 50  0000 C CNN
F 1 "BARREL_JACK" H 6850 600 50  0000 C CNN
F 2 "Connect:BARREL_JACK" H 6850 800 50  0000 C CNN
F 3 "" H 6850 800 50  0000 C CNN
	1    6850 800 
	1    0    0    -1  
$EndComp
$Comp
L TEST_1P VCC1
U 1 1 57BB1ED1
P 3000 1800
F 0 "VCC1" H 3000 2070 50  0000 C CNN
F 1 "TEST_1P" H 3000 2000 50  0000 C CNN
F 2 "Pin_Headers:Pin_Header_Straight_1x01" H 3200 1800 50  0001 C CNN
F 3 "" H 3200 1800 50  0000 C CNN
	1    3000 1800
	1    0    0    -1  
$EndComp
$Comp
L TEST_1P VCC2
U 1 1 57BB210D
P 3400 1800
F 0 "VCC2" H 3400 2070 50  0000 C CNN
F 1 "TEST_1P" H 3400 2000 50  0000 C CNN
F 2 "Pin_Headers:Pin_Header_Straight_1x01" H 3600 1800 50  0001 C CNN
F 3 "" H 3600 1800 50  0000 C CNN
	1    3400 1800
	1    0    0    -1  
$EndComp
$Comp
L TEST_1P Coil_C1
U 1 1 57A5853E
P 7700 2500
F 0 "Coil_C1" H 7700 2770 50  0000 C CNN
F 1 "TEST_1P" H 7700 2700 50  0000 C CNN
F 2 "Pin_Headers:Pin_Header_Straight_1x01" H 7900 2500 50  0001 C CNN
F 3 "" H 7900 2500 50  0000 C CNN
	1    7700 2500
	1    0    0    -1  
$EndComp
Wire Wire Line
	7700 2500 7700 2650
Wire Wire Line
	7450 2400 7450 2000
Connection ~ 8150 850 
Wire Wire Line
	8400 850  8400 2400
Wire Wire Line
	8400 2400 8100 2400
Wire Wire Line
	8100 2400 8100 3050
Wire Wire Line
	8100 3050 7700 3050
Wire Wire Line
	7950 850  8400 850 
Wire Wire Line
	7950 900  7950 850 
Wire Wire Line
	7150 900  7950 900 
Wire Wire Line
	9150 2350 10100 2350
Connection ~ 3400 2000
Wire Wire Line
	3400 1800 3400 2000
Connection ~ 3000 2000
Wire Wire Line
	3000 1800 3000 2000
Wire Wire Line
	7150 800  7150 900 
Wire Wire Line
	7150 700  8700 700 
Connection ~ 9450 2350
Wire Wire Line
	9450 1300 9450 2350
Wire Wire Line
	9350 1800 9350 1300
Wire Wire Line
	6850 1800 9350 1800
Connection ~ 10100 2350
Wire Wire Line
	9150 2350 9150 1300
Wire Wire Line
	9050 1500 9050 1300
Wire Wire Line
	6050 1500 9050 1500
Wire Wire Line
	7700 2000 7700 1500
Connection ~ 10100 1600
Wire Wire Line
	9900 1600 10100 1600
Wire Wire Line
	9900 1050 9900 1600
Wire Wire Line
	5100 1050 9900 1050
Wire Wire Line
	5100 3350 5100 1050
Wire Wire Line
	4800 3350 5100 3350
Connection ~ 9700 5250
Wire Wire Line
	10100 5250 10100 1950
Wire Wire Line
	10100 1400 10100 1650
Connection ~ 1850 3050
Connection ~ 2150 3050
Wire Wire Line
	9500 6350 9500 6050
Wire Wire Line
	5400 6350 9500 6350
Wire Wire Line
	5400 4750 5400 6350
Wire Wire Line
	4800 4750 5400 4750
Wire Wire Line
	9100 6250 9100 6050
Wire Wire Line
	5250 6250 9100 6250
Wire Wire Line
	5250 4450 5250 6250
Wire Wire Line
	4800 4450 5250 4450
Wire Wire Line
	8700 6150 8700 6050
Wire Wire Line
	5100 6150 8700 6150
Wire Wire Line
	5100 4250 5100 6150
Wire Wire Line
	4800 4250 5100 4250
Wire Wire Line
	4900 6050 8300 6050
Wire Wire Line
	4900 2650 4900 6050
Wire Wire Line
	4800 2650 4900 2650
Connection ~ 8300 5250
Wire Wire Line
	8300 5450 8300 5250
Connection ~ 8700 5250
Wire Wire Line
	8700 5450 8700 5250
Connection ~ 9100 5250
Wire Wire Line
	9100 5450 9100 5250
Connection ~ 9500 5250
Wire Wire Line
	9500 5450 9500 5250
Wire Wire Line
	4800 4500 4800 4550
Wire Wire Line
	8200 4500 4800 4500
Wire Wire Line
	4800 4300 4800 4350
Wire Wire Line
	8200 4300 4800 4300
Wire Wire Line
	6450 3850 4800 3850
Wire Wire Line
	6450 4100 6450 3850
Wire Wire Line
	8200 4100 6450 4100
Wire Wire Line
	6450 3750 4800 3750
Wire Wire Line
	6450 3500 6450 3750
Wire Wire Line
	8200 3500 6450 3500
Wire Wire Line
	6400 3650 4800 3650
Wire Wire Line
	6400 3300 6400 3650
Wire Wire Line
	8200 3300 6400 3300
Wire Wire Line
	6350 3550 4800 3550
Wire Wire Line
	6350 3200 6350 3550
Wire Wire Line
	8200 3200 6350 3200
Wire Wire Line
	8200 3100 8200 3200
Wire Wire Line
	1500 5250 10100 5250
Wire Wire Line
	9700 3300 9700 5250
Wire Wire Line
	8500 3100 8600 3100
Wire Wire Line
	8500 3300 8600 3300
Wire Wire Line
	8500 3500 8600 3500
Wire Wire Line
	8500 4100 8600 4100
Wire Wire Line
	8500 4300 8600 4300
Wire Wire Line
	8500 4500 8600 4500
Connection ~ 9700 4300
Wire Wire Line
	9700 3300 9600 3300
Connection ~ 7700 5250
Wire Wire Line
	9700 4300 9600 4300
Wire Wire Line
	9200 3300 9300 3300
Wire Wire Line
	9200 4300 9300 4300
Connection ~ 6650 5250
Wire Wire Line
	6650 2900 6650 5250
Connection ~ 7300 2400
Wire Wire Line
	7450 2400 7300 2400
Wire Wire Line
	7300 2500 7250 2500
Wire Wire Line
	7300 2300 7300 2500
Connection ~ 6950 2450
Wire Wire Line
	7000 2450 6950 2450
Wire Wire Line
	7000 2300 7000 2450
Wire Wire Line
	6950 2300 6950 2700
Wire Wire Line
	6650 2500 6650 2300
Wire Wire Line
	4950 2750 4800 2750
Wire Wire Line
	4950 2550 4950 2750
Wire Wire Line
	6250 2550 4950 2550
Wire Wire Line
	6250 2400 6250 2550
Wire Wire Line
	6350 2400 6250 2400
Connection ~ 7350 5250
Wire Wire Line
	7350 3650 7350 5250
Connection ~ 7350 2900
Wire Wire Line
	7350 2900 7350 3350
Wire Wire Line
	7250 2900 7400 2900
Wire Wire Line
	5600 3050 4800 3050
Wire Wire Line
	5600 3100 5600 3050
Connection ~ 6100 5250
Wire Wire Line
	6100 3100 6100 5250
Wire Wire Line
	5550 2250 5550 2000
Wire Wire Line
	6100 2250 5550 2250
Wire Wire Line
	6100 2700 6100 2450
Wire Wire Line
	5250 3150 4800 3150
Wire Wire Line
	5250 3000 5250 3150
Wire Wire Line
	5600 3000 5250 3000
Connection ~ 2850 2650
Wire Wire Line
	2850 2300 2850 2650
Wire Wire Line
	5400 2300 2850 2300
Wire Wire Line
	5400 2900 5400 2300
Wire Wire Line
	5600 2900 5400 2900
Wire Wire Line
	5200 2950 4800 2950
Wire Wire Line
	5200 2700 5200 2950
Wire Wire Line
	5600 2700 5200 2700
Connection ~ 1850 5250
Connection ~ 1850 2000
Wire Wire Line
	1500 2650 1500 5250
Wire Wire Line
	1500 2000 1500 2250
Wire Wire Line
	5750 2000 6850 2000
Wire Wire Line
	5550 2000 4800 2000
Wire Wire Line
	1500 2000 4500 2000
Connection ~ 5750 2000
Connection ~ 5550 2000
Connection ~ 3800 5250
Connection ~ 2150 2000
Wire Wire Line
	1850 2750 1850 2000
Connection ~ 2450 2000
Wire Wire Line
	2150 2750 2150 2000
Connection ~ 3800 2000
Wire Wire Line
	3800 2350 3800 2000
Connection ~ 2450 2650
Wire Wire Line
	2450 2850 2900 2850
Wire Wire Line
	2450 2000 2450 2850
Wire Wire Line
	2750 2650 2900 2650
Connection ~ 2350 3050
Wire Wire Line
	1850 3050 1850 5250
Wire Wire Line
	1850 3050 2900 3050
Wire Wire Line
	8700 700  8700 800 
Wire Wire Line
	8700 800  9150 800 
Connection ~ 8800 800 
Wire Wire Line
	7450 2000 7700 2000
$Comp
L R R0_1
U 1 1 57BD2D45
P 6050 750
F 0 "R0_1" V 6130 750 50  0000 C CNN
F 1 "R" V 6050 750 50  0000 C CNN
F 2 "Resistors_ThroughHole:Resistor_Horizontal_RM10mm" V 5950 300 50  0000 C CNN
F 3 "" H 6050 750 50  0000 C CNN
	1    6050 750 
	1    0    0    -1  
$EndComp
Wire Wire Line
	6050 1500 6050 900 
Connection ~ 7700 1500
Wire Wire Line
	6050 600  7600 600 
Wire Wire Line
	7600 600  7600 700 
Connection ~ 7600 700 
$Comp
L R R0_2
U 1 1 57BD3FE8
P 8950 2600
F 0 "R0_2" V 9030 2600 50  0000 C CNN
F 1 "R" V 8950 2600 50  0000 C CNN
F 2 "Resistors_ThroughHole:Resistor_Horizontal_RM10mm" V 8880 2600 50  0000 C CNN
F 3 "" H 8950 2600 50  0000 C CNN
	1    8950 2600
	0    1    1    0   
$EndComp
Wire Wire Line
	8100 2600 8800 2600
Connection ~ 8100 2600
Wire Wire Line
	9100 2600 10100 2600
Connection ~ 10100 2600
$Comp
L TEST_1P 12V_GND1
U 1 1 57BE22B3
P 8400 2100
F 0 "12V_GND1" H 8400 2370 50  0000 C CNN
F 1 "TEST_1P" H 8400 2300 50  0000 C CNN
F 2 "Pin_Headers:Pin_Header_Straight_1x01" H 8600 2100 50  0000 C CNN
F 3 "" H 8600 2100 50  0000 C CNN
	1    8400 2100
	0    1    1    0   
$EndComp
Wire Wire Line
	6850 2000 6850 1800
$Comp
L TEST_1P 5V_GND1
U 1 1 57BE9FC1
P 2250 5250
F 0 "5V_GND1" H 2250 5520 50  0000 C CNN
F 1 "TEST_1P" H 2250 5450 50  0000 C CNN
F 2 "Pin_Headers:Pin_Header_Straight_1x01" H 2450 5250 50  0000 C CNN
F 3 "" H 2450 5250 50  0000 C CNN
	1    2250 5250
	1    0    0    -1  
$EndComp
Connection ~ 2250 5250
Connection ~ 8400 2100
Connection ~ 7550 2000
Connection ~ 6650 2000
$Comp
L GNDA #PWR04
U 1 1 57BEC84C
P 8150 850
F 0 "#PWR04" H 8150 600 50  0001 C CNN
F 1 "GNDA" H 8150 700 50  0000 C CNN
F 2 "" H 8150 850 50  0000 C CNN
F 3 "" H 8150 850 50  0000 C CNN
	1    8150 850 
	1    0    0    -1  
$EndComp
$Comp
L +12VA #PWR05
U 1 1 57BEFAEB
P 7850 700
F 0 "#PWR05" H 7850 550 50  0001 C CNN
F 1 "+12VA" H 7850 840 50  0000 C CNN
F 2 "" H 7850 700 50  0000 C CNN
F 3 "" H 7850 700 50  0000 C CNN
	1    7850 700 
	1    0    0    -1  
$EndComp
Connection ~ 7850 700 
$EndSCHEMATC
